{"products":[{"id":684269,"name":"09112615385","productVariantId":681271,"slug":"09112615385","thumbnailUrl":null,"price":1668000.0,"priceWithTax":null,"discountPrice":1000000,"discountPercentage":40.0,"productStatus":"ACTIVE","productType":"EMERALD","attributes":[{"icon":"globe","locationKey":"L3","title":"اینترنت","attributeValueVms":[{"value":"30 گیگابایت | 1 ماهه ","displayText":"30 گیگابایت | 1 ماهه "}],"shortcut":false},{"icon":"phone","locationKey":"L4","title":"مکالمه","attributeValueVms":[{"value":"٪۵۰ تخفیف ماهیانه مکالمه درون شبکه |به مدت 6 ماه","displayText":"٪۵۰ تخفیف ماهیانه مکالمه درون شبکه |به مدت 6 ماه"}],"shortcut":false},{"icon":null,"locationKey":null,"title":"هدیه اینترنت","attributeValueVms":[{"value":"بین 5 تا 30 گیگابایت","displayText":"بین 5 تا 30 گیگابایت"}],"shortcut":false},{"icon":null,"locationKey":null,"title":"Sku Code","attributeValueVms":[{"value":"MCCIMobNum","displayText":"MCCIMobNum"}],"shortcut":false},{"icon":null,"locationKey":null,"title":"whId","attributeValueVms":[{"value":"10585201080747021","displayText":"10585201080747021"}],"shortcut":false},{"icon":null,"locationKey":null,"title":"الگوی شماره","attributeValueVms":[{"value":"NORMAL","displayText":"معمولی (سایر سیم‌کارت‌ها)"}],"shortcut":false},{"icon":"mail","locationKey":"L9","title":"پیامک","attributeValueVms":[{"value":"600 پیامک | 6 ماهه (100 پیامک هر ماه)","displayText":"600 پیامک | 6 ماهه (100 پیامک هر ماه)"}],"shortcut":false},{"icon":null,"locationKey":"L2","title":"نوع سیم‌کارت","attributeValueVms":[{"value":"EMERALD","displayText":"زمردی"}],"shortcut":false},{"icon":null,"locationKey":null,"title":"Item Type Id","attributeValueVms":[{"value":"3004","displayText":"3004"}],"shortcut":false},{"icon":null,"locationKey":"L1","title":"دائمی یا اعتباری","attributeValueVms":[{"value":"POSTPAID","displayText":"دائمی"}],"shortcut":false},{"icon":null,"locationKey":null,"title":"قیمت","attributeValueVms":[{"value":"1668000","displayText":"1668000"}],"shortcut":false},{"icon":null,"locationKey":null,"title":"offerId","attributeValueVms":[{"value":"144","displayText":"144"}],"shortcut":false}],"createdOn":"2025-09-09T21:30:54.491"},{"id":687977,"name":"09112619817","productVariantId":684390,"slug":"09112619817","thumbnailUrl":null,"price":1668000.0,"priceWithTax":null,"discountPrice":1000000,"discountPercentage":40.0,"productStatus":"ACTIVE","productType":"EMERALD","attributes":[{"icon":"globe","locationKey":"L3","title":"اینترنت","attributeValueVms":[{"value":"30 گیگابایت | 1 ماهه ","displayText":"30 گیگابایت | 1 ماهه "}],"shortcut":false},{"icon":"phone","locationKey":"L4","title":"مکالمه","attributeValueVms":[{"value":"٪۵۰ تخفیف ماهیانه مکالمه درون شبکه |به مدت 6 ماه","displayText":"٪۵۰ تخفیف ماهیانه مکالمه درون شبکه |به مدت 6 ماه"}],"shortcut":false},{"icon":null,"locationKey":null,"title":"هدیه اینترنت","attributeValueVms":[{"value":"بین 5 تا 30 گیگابایت","displayText":"بین 5 تا 30 گیگابایت"}],"shortcut":false},{"icon":null,"locationKey":null,"title":"Sku Code","attributeValueVms":[{"value":"MCCIMobNum","displayText":"MCCIMobNum"}],"shortcut":false},{"icon":null,"locationKey":null,"title":"whId","attributeValueVms":[{"value":"10585201080747021","displayText":"10585201080747021"}],"shortcut":false},{"icon":null,"locationKey":null,"title":"الگوی شماره","attributeValueVms":[{"value":"NORMAL","displayText":"معمولی (سایر سیم‌کارت‌ها)"}],"shortcut":false},{"icon":"mail","locationKey":"L9","title":"پیامک","attributeValueVms":[{"value":"600 پیامک | 6 ماهه (100 پیامک هر ماه)","displayText":"600 پیامک | 6 ماهه (100 پیامک هر ماه)"}],"shortcut":false},{"icon":null,"locationKey":"L2","title":"نوع سیم‌کارت","attributeValueVms":[{"value":"EMERALD","displayText":"زمردی"}],"shortcut":false},{"icon":null,"locationKey":null,"title":"Item Type Id","attributeValueVms":[{"value":"3004","displayText":"3004"}],"shortcut":false},{"icon":null,"locationKey":"L1","title":"دائمی یا اعتباری","attributeValueVms":[{"value":"POSTPAID","displayText":"دائمی"}],"shortcut":false},{"icon":null,"locationKey":null,"title":"قیمت","attributeValueVms":[{"value":"1668000","displayText":"1668000"}],"shortcut":false},{"icon":null,"locationKey":null,"title":"offerId","attributeValueVms":[{"value":"144","displayText":"144"}],"shortcut":false}],"createdOn":"2025-09-09T21:31:06.964"},{"id":687629,"name":"09112649689","productVariantId":684858,"slug":"09112649689","thumbnailUrl":null,"price":1668000.0,"priceWithTax":null,"discountPrice":1000000,"discountPercentage":40.0,"productStatus":"ACTIVE","productType":"EMERALD","attributes":[{"icon":"globe","locationKey":"L3","title":"اینترنت","attributeValueVms":[{"value":"30 گیگابایت | 1 ماهه ","displayText":"30 گیگابایت | 1 ماهه "}],"shortcut":false},{"icon":"phone","locationKey":"L4","title":"مکالمه","attributeValueVms":[{"value":"٪۵۰ تخفیف ماهیانه مکالمه درون شبکه |به مدت 6 ماه","displayText":"٪۵۰ تخفیف ماهیانه مکالمه درون شبکه |به مدت 6 ماه"}],"shortcut":false},{"icon":null,"locationKey":null,"title":"هدیه اینترنت","attributeValueVms":[{"value":"بین 5 تا 30 گیگابایت","displayText":"بین 5 تا 30 گیگابایت"}],"shortcut":false},{"icon":null,"locationKey":null,"title":"Sku Code","attributeValueVms":[{"value":"MCCIMobNum","displayText":"MCCIMobNum"}],"shortcut":false},{"icon":null,"locationKey":null,"title":"whId","attributeValueVms":[{"value":"10585201080747021","displayText":"10585201080747021"}],"shortcut":false},{"icon":null,"locationKey":null,"title":"الگوی شماره","attributeValueVms":[{"value":"NORMAL","displayText":"معمولی (سایر سیم‌کارت‌ها)"}],"shortcut":false},{"icon":"mail","locationKey":"L9","title":"پیامک","attributeValueVms":[{"value":"600 پیامک | 6 ماهه (100 پیامک هر ماه)","displayText":"600 پیامک | 6 ماهه (100 پیامک هر ماه)"}],"shortcut":false},{"icon":null,"locationKey":"L2","title":"نوع سیم‌کارت","attributeValueVms":[{"value":"EMERALD","displayText":"زمردی"}],"shortcut":false},{"icon":null,"locationKey":null,"title":"Item Type Id","attributeValueVms":[{"value":"3004","displayText":"3004"}],"shortcut":false},{"icon":null,"locationKey":"L1","title":"دائمی یا اعتباری","attributeValueVms":[{"value":"POSTPAID","displayText":"دائمی"}],"shortcut":false},{"icon":null,"locationKey":null,"title":"قیمت","attributeValueVms":[{"value":"1668000","displayText":"1668000"}],"shortcut":false},{"icon":null,"locationKey":null,"title":"offerId","attributeValueVms":[{"value":"144","displayText":"144"}],"shortcut":false}],"createdOn":"2025-09-09T21:31:05.351"},{"id":687153,"name":"09112643753","productVariantId":684222,"slug":"09112643753","thumbnailUrl":null,"price":1668000.0,"priceWithTax":null,"discountPrice":1000000,"discountPercentage":40.0,"productStatus":"ACTIVE","productType":"EMERALD","attributes":[{"icon":"globe","locationKey":"L3","title":"اینترنت","attributeValueVms":[{"value":"30 گیگابایت | 1 ماهه ","displayText":"30 گیگابایت | 1 ماهه "}],"shortcut":false},{"icon":"phone","locationKey":"L4","title":"مکالمه","attributeValueVms":[{"value":"٪۵۰ تخفیف ماهیانه مکالمه درون شبکه |به مدت 6 ماه","displayText":"٪۵۰ تخفیف ماهیانه مکالمه درون شبکه |به مدت 6 ماه"}],"shortcut":false},{"icon":null,"locationKey":null,"title":"هدیه اینترنت","attributeValueVms":[{"value":"بین 5 تا 30 گیگابایت","displayText":"بین 5 تا 30 گیگابایت"}],"shortcut":false},{"icon":null,"locationKey":null,"title":"Sku Code","attributeValueVms":[{"value":"MCCIMobNum","displayText":"MCCIMobNum"}],"shortcut":false},{"icon":null,"locationKey":null,"title":"whId","attributeValueVms":[{"value":"10585201080747021","displayText":"10585201080747021"}],"shortcut":false},{"icon":null,"locationKey":null,"title":"الگوی شماره","attributeValueVms":[{"value":"NORMAL","displayText":"معمولی (سایر سیم‌کارت‌ها)"}],"shortcut":false},{"icon":"mail","locationKey":"L9","title":"پیامک","attributeValueVms":[{"value":"600 پیامک | 6 ماهه (100 پیامک هر ماه)","displayText":"600 پیامک | 6 ماهه (100 پیامک هر ماه)"}],"shortcut":false},{"icon":null,"locationKey":"L2","title":"نوع سیم‌کارت","attributeValueVms":[{"value":"EMERALD","displayText":"زمردی"}],"shortcut":false},{"icon":null,"locationKey":null,"title":"Item Type Id","attributeValueVms":[{"value":"3004","displayText":"3004"}],"shortcut":false},{"icon":null,"locationKey":"L1","title":"دائمی یا اعتباری","attributeValueVms":[{"value":"POSTPAID","displayText":"دائمی"}],"shortcut":false},{"icon":null,"locationKey":null,"title":"قیمت","attributeValueVms":[{"value":"1668000","displayText":"1668000"}],"shortcut":false},{"icon":null,"locationKey":null,"title":"offerId","attributeValueVms":[{"value":"144","displayText":"144"}],"shortcut":false}],"createdOn":"2025-09-09T21:31:03.415"},{"id":688249,"name":"09112648579","productVariantId":684631,"slug":"09112648579","thumbnailUrl":null,"price":1668000.0,"priceWithTax":null,"discountPrice":1000000,"discountPercentage":40.0,"productStatus":"ACTIVE","productType":"EMERALD","attributes":[{"icon":"globe","locationKey":"L3","title":"اینترنت","attributeValueVms":[{"value":"30 گیگابایت | 1 ماهه ","displayText":"30 گیگابایت | 1 ماهه "}],"shortcut":false},{"icon":"phone","locationKey":"L4","title":"مکالمه","attributeValueVms":[{"value":"٪۵۰ تخفیف ماهیانه مکالمه درون شبکه |به مدت 6 ماه","displayText":"٪۵۰ تخفیف ماهیانه مکالمه درون شبکه |به مدت 6 ماه"}],"shortcut":false},{"icon":null,"locationKey":null,"title":"هدیه اینترنت","attributeValueVms":[{"value":"بین 5 تا 30 گیگابایت","displayText":"بین 5 تا 30 گیگابایت"}],"shortcut":false},{"icon":null,"locationKey":null,"title":"Sku Code","attributeValueVms":[{"value":"MCCIMobNum","displayText":"MCCIMobNum"}],"shortcut":false},{"icon":null,"locationKey":null,"title":"whId","attributeValueVms":[{"value":"10585201080747021","displayText":"10585201080747021"}],"shortcut":false},{"icon":null,"locationKey":null,"title":"الگوی شماره","attributeValueVms":[{"value":"NORMAL","displayText":"معمولی (سایر سیم‌کارت‌ها)"}],"shortcut":false},{"icon":"mail","locationKey":"L9","title":"پیامک","attributeValueVms":[{"value":"600 پیامک | 6 ماهه (100 پیامک هر ماه)","displayText":"600 پیامک | 6 ماهه (100 پیامک هر ماه)"}],"shortcut":false},{"icon":null,"locationKey":"L2","title":"نوع سیم‌کارت","attributeValueVms":[{"value":"EMERALD","displayText":"زمردی"}],"shortcut":false},{"icon":null,"locationKey":null,"title":"Item Type Id","attributeValueVms":[{"value":"3004","displayText":"3004"}],"shortcut":false},{"icon":null,"locationKey":"L1","title":"دائمی یا اعتباری","attributeValueVms":[{"value":"POSTPAID","displayText":"دائمی"}],"shortcut":false},{"icon":null,"locationKey":null,"title":"قیمت","attributeValueVms":[{"value":"1668000","displayText":"1668000"}],"shortcut":false},{"icon":null,"locationKey":null,"title":"offerId","attributeValueVms":[{"value":"144","displayText":"144"}],"shortcut":false}],"createdOn":"2025-09-09T21:31:07.696"},{"id":687858,"name":"09112614317","productVariantId":684265,"slug":"09112614317","thumbnailUrl":null,"price":1668000.0,"priceWithTax":null,"discountPrice":1000000,"discountPercentage":40.0,"productStatus":"ACTIVE","productType":"EMERALD","attributes":[{"icon":"globe","locationKey":"L3","title":"اینترنت","attributeValueVms":[{"value":"30 گیگابایت | 1 ماهه ","displayText":"30 گیگابایت | 1 ماهه "}],"shortcut":false},{"icon":"phone","locationKey":"L4","title":"مکالمه","attributeValueVms":[{"value":"٪۵۰ تخفیف ماهیانه مکالمه درون شبکه |به مدت 6 ماه","displayText":"٪۵۰ تخفیف ماهیانه مکالمه درون شبکه |به مدت 6 ماه"}],"shortcut":false},{"icon":null,"locationKey":null,"title":"هدیه اینترنت","attributeValueVms":[{"value":"بین 5 تا 30 گیگابایت","displayText":"بین 5 تا 30 گیگابایت"}],"shortcut":false},{"icon":null,"locationKey":null,"title":"Sku Code","attributeValueVms":[{"value":"MCCIMobNum","displayText":"MCCIMobNum"}],"shortcut":false},{"icon":null,"locationKey":null,"title":"whId","attributeValueVms":[{"value":"10585201080747021","displayText":"10585201080747021"}],"shortcut":false},{"icon":null,"locationKey":null,"title":"الگوی شماره","attributeValueVms":[{"value":"NORMAL","displayText":"معمولی (سایر سیم‌کارت‌ها)"}],"shortcut":false},{"icon":"mail","locationKey":"L9","title":"پیامک","attributeValueVms":[{"value":"600 پیامک | 6 ماهه (100 پیامک هر ماه)","displayText":"600 پیامک | 6 ماهه (100 پیامک هر ماه)"}],"shortcut":false},{"icon":null,"locationKey":"L2","title":"نوع سیم‌کارت","attributeValueVms":[{"value":"EMERALD","displayText":"زمردی"}],"shortcut":false},{"icon":null,"locationKey":null,"title":"Item Type Id","attributeValueVms":[{"value":"3004","displayText":"3004"}],"shortcut":false},{"icon":null,"locationKey":"L1","title":"دائمی یا اعتباری","attributeValueVms":[{"value":"POSTPAID","displayText":"دائمی"}],"shortcut":false},{"icon":null,"locationKey":null,"title":"قیمت","attributeValueVms":[{"value":"1668000","displayText":"1668000"}],"shortcut":false},{"icon":null,"locationKey":null,"title":"offerId","attributeValueVms":[{"value":"144","displayText":"144"}],"shortcut":false}],"createdOn":"2025-09-09T21:31:06.43"},{"id":690594,"name":"09112895718","productVariantId":686928,"slug":"09112895718","thumbnailUrl":null,"price":1668000.0,"priceWithTax":null,"discountPrice":1000000,"discountPercentage":40.0,"productStatus":"ACTIVE","productType":"EMERALD","attributes":[{"icon":"globe","locationKey":"L3","title":"اینترنت","attributeValueVms":[{"value":"30 گیگابایت | 1 ماهه ","displayText":"30 گیگابایت | 1 ماهه "}],"shortcut":false},{"icon":"phone","locationKey":"L4","title":"مکالمه","attributeValueVms":[{"value":"٪۵۰ تخفیف ماهیانه مکالمه درون شبکه |به مدت 6 ماه","displayText":"٪۵۰ تخفیف ماهیانه مکالمه درون شبکه |به مدت 6 ماه"}],"shortcut":false},{"icon":null,"locationKey":null,"title":"هدیه اینترنت","attributeValueVms":[{"value":"بین 5 تا 30 گیگابایت","displayText":"بین 5 تا 30 گیگابایت"}],"shortcut":false},{"icon":null,"locationKey":null,"title":"Sku Code","attributeValueVms":[{"value":"MCCIMobNum","displayText":"MCCIMobNum"}],"shortcut":false},{"icon":null,"locationKey":null,"title":"whId","attributeValueVms":[{"value":"10585201080747021","displayText":"10585201080747021"}],"shortcut":false},{"icon":null,"locationKey":null,"title":"الگوی شماره","attributeValueVms":[{"value":"NORMAL","displayText":"معمولی (سایر سیم‌کارت‌ها)"}],"shortcut":false},{"icon":"mail","locationKey":"L9","title":"پیامک","attributeValueVms":[{"value":"600 پیامک | 6 ماهه (100 پیامک هر ماه)","displayText":"600 پیامک | 6 ماهه (100 پیامک هر ماه)"}],"shortcut":false},{"icon":null,"locationKey":"L2","title":"نوع سیم‌کارت","attributeValueVms":[{"value":"EMERALD","displayText":"زمردی"}],"shortcut":false},{"icon":null,"locationKey":null,"title":"Item Type Id","attributeValueVms":[{"value":"3004","displayText":"3004"}],"shortcut":false},{"icon":null,"locationKey":"L1","title":"دائمی یا اعتباری","attributeValueVms":[{"value":"POSTPAID","displayText":"دائمی"}],"shortcut":false},{"icon":null,"locationKey":null,"title":"قیمت","attributeValueVms":[{"value":"1668000","displayText":"1668000"}],"shortcut":false},{"icon":null,"locationKey":null,"title":"offerId","attributeValueVms":[{"value":"144","displayText":"144"}],"shortcut":false}],"createdOn":"2025-09-09T21:31:13.355"},{"id":663857,"name":"09112957808","productVariantId":660244,"slug":"09112957808","thumbnailUrl":null,"price":8000000.0,"priceWithTax":null,"discountPrice":null,"discountPercentage":null,"productStatus":"ACTIVE","productType":"TURQUOISE","attributes":[{"icon":"globe","locationKey":"L3","title":"اینترنت","attributeValueVms":[{"value":"90 گیگابایت | 3 ماهه (30 گیگابایت هر ماه)","displayText":"90 گیگابایت | 3 ماهه (30 گیگابایت هر ماه)"}],"shortcut":false},{"icon":"phone","locationKey":"L4","title":"مکالمه","attributeValueVms":[{"value":"5400 دقیقه مکالمه درون شبکه | 3 ماهه (1800 دقیقه هر ماه)","displayText":"5400 دقیقه مکالمه درون شبکه | 3 ماهه (1800 دقیقه هر ماه)"}],"shortcut":false},{"icon":null,"locationKey":null,"title":"Sku Code","attributeValueVms":[{"value":"MCCIMobNum","displayText":"MCCIMobNum"}],"shortcut":false},{"icon":null,"locationKey":null,"title":"whId","attributeValueVms":[{"value":"10585201080747021","displayText":"10585201080747021"}],"shortcut":false},{"icon":null,"locationKey":null,"title":"الگوی شماره","attributeValueVms":[{"value":"LEVEL2_3","displayText":"خوب (سیم‌کارت‌های فیروزه‌ای درجه 2 و 3)"}],"shortcut":false},{"icon":"mail","locationKey":"L9","title":"پیامک","attributeValueVms":[{"value":"3000 پیامک | 3 ماهه","displayText":"3000 پیامک | 3 ماهه"}],"shortcut":false},{"icon":null,"locationKey":"L2","title":"نوع سیم‌کارت","attributeValueVms":[{"value":"TURQUOISE","displayText":"فيروزه ای"}],"shortcut":false},{"icon":null,"locationKey":null,"title":"Item Type Id","attributeValueVms":[{"value":"3004","displayText":"3004"}],"shortcut":false},{"icon":null,"locationKey":"L1","title":"دائمی یا اعتباری","attributeValueVms":[{"value":"POSTPAID","displayText":"دائمی"}],"shortcut":false},{"icon":null,"locationKey":null,"title":"قیمت","attributeValueVms":[{"value":"8000000","displayText":"8000000"}],"shortcut":false},{"icon":null,"locationKey":null,"title":"offerId","attributeValueVms":[{"value":"171","displayText":"171"}],"shortcut":false},{"icon":null,"locationKey":"L12","title":"تگ جزئیات","attributeValueVms":[{"value":"درجه دو","displayText":"درجه دو"}],"shortcut":false},{"icon":null,"locationKey":null,"title":"هدیه اینترنت","attributeValueVms":[{"value":"بیشتر از 60 گیگابایت","displayText":"بیشتر از 60 گیگابایت"}],"shortcut":false}],"createdOn":"2025-09-02T08:09:20.411"},{"id":663860,"name":"09112984919","productVariantId":660253,"slug":"09112984919","thumbnailUrl":null,"price":8000000.0,"priceWithTax":null,"discountPrice":null,"discountPercentage":null,"productStatus":"ACTIVE","productType":"TURQUOISE","attributes":[{"icon":"globe","locationKey":"L3","title":"اینترنت","attributeValueVms":[{"value":"90 گیگابایت | 3 ماهه (30 گیگابایت هر ماه)","displayText":"90 گیگابایت | 3 ماهه (30 گیگابایت هر ماه)"}],"shortcut":false},{"icon":"phone","locationKey":"L4","title":"مکالمه","attributeValueVms":[{"value":"5400 دقیقه مکالمه درون شبکه | 3 ماهه (1800 دقیقه هر ماه)","displayText":"5400 دقیقه مکالمه درون شبکه | 3 ماهه (1800 دقیقه هر ماه)"}],"shortcut":false},{"icon":null,"locationKey":null,"title":"Sku Code","attributeValueVms":[{"value":"MCCIMobNum","displayText":"MCCIMobNum"}],"shortcut":false},{"icon":null,"locationKey":null,"title":"whId","attributeValueVms":[{"value":"10585201080747021","displayText":"10585201080747021"}],"shortcut":false},{"icon":null,"locationKey":null,"title":"الگوی شماره","attributeValueVms":[{"value":"LEVEL2_3","displayText":"خوب (سیم‌کارت‌های فیروزه‌ای درجه 2 و 3)"}],"shortcut":false},{"icon":"mail","locationKey":"L9","title":"پیامک","attributeValueVms":[{"value":"3000 پیامک | 3 ماهه","displayText":"3000 پیامک | 3 ماهه"}],"shortcut":false},{"icon":null,"locationKey":"L2","title":"نوع سیم‌کارت","attributeValueVms":[{"value":"TURQUOISE","displayText":"فيروزه ای"}],"shortcut":false},{"icon":null,"locationKey":null,"title":"Item Type Id","attributeValueVms":[{"value":"3004","displayText":"3004"}],"shortcut":false},{"icon":null,"locationKey":"L1","title":"دائمی یا اعتباری","attributeValueVms":[{"value":"POSTPAID","displayText":"دائمی"}],"shortcut":false},{"icon":null,"locationKey":null,"title":"قیمت","attributeValueVms":[{"value":"8000000","displayText":"8000000"}],"shortcut":false},{"icon":null,"locationKey":null,"title":"offerId","attributeValueVms":[{"value":"171","displayText":"171"}],"shortcut":false},{"icon":null,"locationKey":"L12","title":"تگ جزئیات","attributeValueVms":[{"value":"درجه دو","displayText":"درجه دو"}],"shortcut":false},{"icon":null,"locationKey":null,"title":"هدیه اینترنت","attributeValueVms":[{"value":"بیشتر از 60 گیگابایت","displayText":"بیشتر از 60 گیگابایت"}],"shortcut":false}],"createdOn":"2025-09-02T08:09:20.496"},{"id":663605,"name":"09112950989","productVariantId":659993,"slug":"09112950989","thumbnailUrl":null,"price":8000000.0,"priceWithTax":null,"discountPrice":null,"discountPercentage":null,"productStatus":"ACTIVE","productType":"TURQUOISE","attributes":[{"icon":"globe","locationKey":"L3","title":"اینترنت","attributeValueVms":[{"value":"90 گیگابایت | 3 ماهه (30 گیگابایت هر ماه)","displayText":"90 گیگابایت | 3 ماهه (30 گیگابایت هر ماه)"}],"shortcut":false},{"icon":"phone","locationKey":"L4","title":"مکالمه","attributeValueVms":[{"value":"5400 دقیقه مکالمه درون شبکه | 3 ماهه (1800 دقیقه هر ماه)","displayText":"5400 دقیقه مکالمه درون شبکه | 3 ماهه (1800 دقیقه هر ماه)"}],"shortcut":false},{"icon":null,"locationKey":null,"title":"Sku Code","attributeValueVms":[{"value":"MCCIMobNum","displayText":"MCCIMobNum"}],"shortcut":false},{"icon":null,"locationKey":null,"title":"whId","attributeValueVms":[{"value":"10585201080747021","displayText":"10585201080747021"}],"shortcut":false},{"icon":null,"locationKey":null,"title":"الگوی شماره","attributeValueVms":[{"value":"LEVEL2_3","displayText":"خوب (سیم‌کارت‌های فیروزه‌ای درجه 2 و 3)"}],"shortcut":false},{"icon":"mail","locationKey":"L9","title":"پیامک","attributeValueVms":[{"value":"3000 پیامک | 3 ماهه","displayText":"3000 پیامک | 3 ماهه"}],"shortcut":false},{"icon":null,"locationKey":"L2","title":"نوع سیم‌کارت","attributeValueVms":[{"value":"TURQUOISE","displayText":"فيروزه ای"}],"shortcut":false},{"icon":null,"locationKey":null,"title":"Item Type Id","attributeValueVms":[{"value":"3004","displayText":"3004"}],"shortcut":false},{"icon":null,"locationKey":"L1","title":"دائمی یا اعتباری","attributeValueVms":[{"value":"POSTPAID","displayText":"دائمی"}],"shortcut":false},{"icon":null,"locationKey":null,"title":"قیمت","attributeValueVms":[{"value":"8000000","displayText":"8000000"}],"shortcut":false},{"icon":null,"locationKey":null,"title":"offerId","attributeValueVms":[{"value":"171","displayText":"171"}],"shortcut":false},{"icon":null,"locationKey":"L12","title":"تگ جزئیات","attributeValueVms":[{"value":"درجه دو","displayText":"درجه دو"}],"shortcut":false},{"icon":null,"locationKey":null,"title":"هدیه اینترنت","attributeValueVms":[{"value":"بیشتر از 60 گیگابایت","displayText":"بیشتر از 60 گیگابایت"}],"shortcut":false}],"createdOn":"2025-09-02T08:09:19.388"}],"pageNo":157,"pageSize":16,"totalElements":2522,"totalPages":158,"isLast":true}
